^D:\MBF SECRET DOCUMENTS\ZTU\1 КУРС\АТАТАТАТАТАТА\DSA_LAB7_8\DSA_LAB7_8\X64\DEBUG\DSA_LAB7_8.OBJ
D:\MBF SECRET DOCUMENTS\ZTU\1 курс\атататататата\DSA_LAB7_8\X64\DEBUG\DSA_LAB7_8.EXE
D:\MBF SECRET DOCUMENTS\ZTU\1 курс\атататататата\DSA_LAB7_8\DSA_LAB7_8\X64\DEBUG\DSA_LAB7_8.ILK
D:\MBF SECRET DOCUMENTS\ZTU\1 курс\атататататата\DSA_LAB7_8\X64\DEBUG\DSA_LAB7_8.PDB
